%YAML 1.1
%TAG !u! tag:unity3d.com,2011:
--- !u!114 &11400000
MonoBehaviour:
  m_ObjectHideFlags: 0
  m_CorrespondingSourceObject: {fileID: 0}
  m_PrefabInstance: {fileID: 0}
  m_PrefabAsset: {fileID: 0}
  m_GameObject: {fileID: 0}
  m_Enabled: 1
  m_EditorHideFlags: 0
  m_Script: {fileID: 11500000, guid: 12acdbe1045230a46bbe432f30fde029, type: 3}
  m_Name: Scene3Sauver
  m_EditorClassIdentifier: 
  Lines:
  - SpeakerId: 0
    Line: "Je vois une lumi\xE8re magique qui m'indique le chemin!"
    FontStyle: {fileID: 0}
  - SpeakerId: 1
    Line: Tu brilles! Attend avant de partir dit moi comment t'es tu retrouver sous
      la glace?
    FontStyle: {fileID: 0}
  - SpeakerId: 0
    Line: "Et bien il s'agit d'un accident tragique... Je p\xEAchais sur le lac comme
      tous les dimanches... "
    FontStyle: {fileID: 0}
  - SpeakerId: 1
    Line: HumHum
    FontStyle: {fileID: 0}
  - SpeakerId: 0
    Line: Des tentacules ont soudainement surgit des profondeurs du lac...
    FontStyle: {fileID: 0}
  - SpeakerId: 1
    Line: HO!
    FontStyle: {fileID: 0}
  - SpeakerId: 0
    Line: "Le poulpe g\xE9ant m'a saisi et emporter sous les eaux! "
    FontStyle: {fileID: 0}
  - SpeakerId: 1
    Line: NON!
    FontStyle: {fileID: 0}
  - SpeakerId: 0
    Line: "Avant que mon Ame n'est eu le temps de remonter \xE0 la surface le lac
      \xE9tait gel\xE9."
    FontStyle: {fileID: 0}
  - SpeakerId: 1
    Line: Quelle triste histoire! Tu pleure Emilio?
    FontStyle: {fileID: 0}
  - SpeakerId: 0
    Line: "Snif! Biensur que non! Snif! C'est toi qui m'a trop arroser tout \xE0
      l'heure et avec ce froid l\xE0!"
    FontStyle: {fileID: 0}
  - SpeakerId: 1
    Line: Ne mord pas la main qui te nourrit! Enfin, gros ronchon!
    FontStyle: {fileID: 0}
  - SpeakerId: 0
    Line: "Je dois y aller, merci \xE0 vooouuu! Je suis liiiibre!"
    FontStyle: {fileID: 0}
  - SpeakerId: 1
    Line: Adieux!
    FontStyle: {fileID: 0}
