%YAML 1.1
%TAG !u! tag:unity3d.com,2011:
--- !u!114 &11400000
MonoBehaviour:
  m_ObjectHideFlags: 0
  m_CorrespondingSourceObject: {fileID: 0}
  m_PrefabInstance: {fileID: 0}
  m_PrefabAsset: {fileID: 0}
  m_GameObject: {fileID: 0}
  m_Enabled: 1
  m_EditorHideFlags: 0
  m_Script: {fileID: 11500000, guid: 12acdbe1045230a46bbe432f30fde029, type: 3}
  m_Name: DialogueBlueprint
  m_EditorClassIdentifier: 
  Lines:
  - SpeakerId: 1
    Line: "Voici un vers fr\xE9tillant de vie pour vous Maitre corbeau."
    FontStyle: {fileID: 0}
  - SpeakerId: 2
    Line: "Croa! J'en ai l'eau \xE0 la bouche!"
    FontStyle: {fileID: 0}
  - SpeakerId: 0
    Line: "Beurk, les oiseaux sont vraiment des \xEAtres \xE9coeurant. "
    FontStyle: {fileID: 0}
  - SpeakerId: 1
    Line: "Enfin Emilio tout les monde \xE0 sa place dans cette nature. D'ailleur
      c'est toi qui n'a pas encore trouv\xE9 la tienne."
    FontStyle: {fileID: 0}
  - SpeakerId: 0
    Line: Oui ba merci de me le rappeller...
    FontStyle: {fileID: 0}
  - SpeakerId: 2
    Line: Le dernier ingredient est un receptacle. Certain arthropodes y pondent
      leur oeufs dont je suis friand.
    FontStyle: {fileID: 0}
  - SpeakerId: 1
    Line: Motivons nous Emilio c'est le dernier!
    FontStyle: {fileID: 0}
